pos,regions,avg_age
1,Asturias,48.02
2,Castilla y León,47.26
3,Galicia,47.00
4,Cantabria,45.31
5,País Vasco,45.27
6,Aragón,44.70
7,La Rioja,44.29
8,Extremadura,44.03
9,Navarra,43.17
10,Comunitat Valenciana,43.16
11,Castilla - La Mancha,42.84
12,Cataluña,42.72
13,Canarias,42.19
14,Comunidad de Madrid,42.17
15,Andalucía,41.56
16,Balears,41.32
17,Murcia,40.34
18,Ceuta,37.19
19,Melilla,35.22
